%YAML 1.1
%TAG !u! tag:unity3d.com,2011:
--- !u!114 &11400000
MonoBehaviour:
  m_ObjectHideFlags: 0
  m_PrefabParentObject: {fileID: 0}
  m_PrefabInternal: {fileID: 0}
  m_GameObject: {fileID: 0}
  m_Enabled: 1
  m_EditorHideFlags: 0
  m_Script: {fileID: 11500000, guid: 1522538863539db4094b2b55bb636ca5, type: 3}
  m_Name: Portuguese
  m_EditorClassIdentifier: 
  keys:
  - score
  - lives_enemies
  values:
  - "Pontua\xE7\xE3o\n{0}"
  - 'Vidas: {0}

    Inimigos: {1}'
